INDEX VERSION 1.131+D:\Documents\ENSISA\Compilation\Projet\compilation\.metadata\.plugins\org.eclipse.jdt.core
2777612265.index
2923218292.index
2254571451.index
2813850920.index
741416789.index
1558234620.index
1301684271.index
555507292.index
2155685345.index
2458036738.index
971378871.index
2158205419.index
2476351216.index
408771512.index
911398812.index
4276758565.index
3929848548.index
2831726757.index
3259301653.index
